{
    "0": {
        "quantity": 90,
        "ipfs": "ipfs://QmPF1jx19tqtKCFmkRLfntSTmyVVBeN2eXVhfxxVcBQbZc",
        "thumbnail": "ipfs://QmXfNXKN2hCTCMqNtTYwv6YjDAM4JKm99ESvBieXWBgrdo",
        "Metal": "Bronze",
        "Background": "Black",
        "Shape": "1",
        "ratio": "4.451"
    },
    "1": {
        "quantity": 90,
        "ipfs": "ipfs://QmaymurFxRWW2MvV1PxakBLJ1StxUqySFe7yoXLa1LvAic",
        "thumbnail": "ipfs://QmRMUjYt98Ss78X2pHAdptWMLxMLYdC4iXf8x5iwHi6Uam",
        "Metal": "Bronze",
        "Background": "Black",
        "Shape": "2",
        "ratio": "4.451"
    },
    "2": {
        "quantity": 90,
        "ipfs": "ipfs://QmU1sannMRywtVEAfuP2dhyJHg6GPFTqoKeBjVLfYoC9Va",
        "thumbnail": "ipfs://QmbNGDwF34ouCskcwUedbUMsRxykBH98dGfXaw7TGcvq6J",
        "Metal": "Bronze",
        "Background": "Black",
        "Shape": "3",
        "ratio": "4.451"
    },
    "3": {
        "quantity": 90,
        "ipfs": "ipfs://QmW73uSYoJrzB74RLKSYbF7ciBt64uKktkxM6EM7gVneYK",
        "thumbnail": "ipfs://QmSnZvgYREYudgd13UXMtP8Te8YWjPERC5kmzyR2TxUezg",
        "Metal": "Bronze",
        "Background": "Black",
        "Shape": "4",
        "ratio": "4.451"
    },
    "4": {
        "quantity": 90,
        "ipfs": "ipfs://QmNXMQVNZq8ZDEWSJPUFWfpVDU6t9aeWhgr3oqEu2eeGYZ",
        "thumbnail": "ipfs://QmXvUCBa2DMACayyrUFHruPnUgo6Fo54gz3CCEqV9QZaYo",
        "Metal": "Bronze",
        "Background": "Black",
        "Shape": "5",
        "ratio": "4.451"
    },
    "5": {
        "quantity": 90,
        "ipfs": "ipfs://QmcAAreUPu8gfsmGd8JJ2cSkagE1GCYwg4356FAgd8LF1e",
        "thumbnail": "ipfs://QmeeTFyzw8Z5guNXr51j3yc9pmq7xdVKtn5RejXr7NwKJo",
        "Metal": "Bronze",
        "Background": "Black",
        "Shape": "6",
        "ratio": "4.451"
    },
    "6": {
        "quantity": 90,
        "ipfs": "ipfs://QmVHSY7VLawZJXZ6RsHaZ8yizPtvEBcEde22W5jxnTHnGo",
        "thumbnail": "ipfs://QmZhQzGff7nJZBXfu9AkNcunDnMoMozVkjzrJAKBRydmW1",
        "Metal": "Bronze",
        "Background": "Black",
        "Shape": "7",
        "ratio": "4.451"
    },
    "7": {
        "quantity": 28,
        "ipfs": "ipfs://QmbVr12ErU8GySU6tATBg5fTvJ1ynKLh6f61rvnfqiMdUH",
        "thumbnail": "ipfs://QmVwTbwTAfzoJJT4Jd2kD1WnkggaRMNahiKAfr2KSwm78s",
        "Metal": "Bronze",
        "Background": "Planar",
        "Shape": "5"
    },
    "8": {
        "quantity": 28,
        "ipfs": "ipfs://QmVfYsY19j6cpShUxtghreiunjjeSYMhGQ5MjmUmUzYXGS",
        "thumbnail": "ipfs://QmaQ8QBAYGUrQ6B1VJnpXzXmofPkMuZrW3pASBX3nTPUsr",
        "Metal": "Bronze",
        "Background": "Minimal",
        "Shape": "2",
        "ratio": "1.3848"
    },
    "9": {
        "quantity": 28,
        "ipfs": "ipfs://QmcoyVqS8TTSbhJbAxvhGYXhJttEEgpBtffP4PLYK8QvjN",
        "thumbnail": "ipfs://QmSpGgEwQz1iLc9rnqLDF8nSPib1Uv3LGdgZT6KpkYTi15",
        "Metal": "Bronze",
        "Background": "Stone",
        "Shape": "3",
        "ratio": "1.3848"
    },
    "10": {
        "quantity": 28,
        "ipfs": "ipfs://QmWL53ugsxyd7hNesShbVruzXK57tmyDV6gPsc6S4yyV15",
        "thumbnail": "ipfs://QmfHbLC2Zkn6pRJ2jm84DyJF3pXuHzitgWPh5PgFcRurtF",
        "Metal": "Bronze",
        "Background": "Perfect copper",
        "Shape": "4",
        "ratio": "1.3848"
    },
    "11": {
        "quantity": 28,
        "ipfs": "ipfs://QmQ7aEqQTKPZ9FvTf8PbJmEhr4ohW9J1nM4ojrhtfTNE5Y",
        "thumbnail": "ipfs://QmRGRGJED31cgewAgwgQqAd52MZkpcbNcjQJdeZEm43xgv",
        "Metal": "Bronze",
        "Background": "Dark Stone",
        "Shape": "6",
        "ratio": "1.3848"
    },
    "12": {
        "quantity": 28,
        "ipfs": "ipfs://QmZ2iMXJQPK5YzLV87BA6AgxJuKKkae8wafDLBQma4k4T1",
        "thumbnail": "ipfs://QmVTk9NU3hT4L4AYuPeMBABcNYYKUmrzE7SqzAwS3GchUK",
        "Metal": "Bronze",
        "Background": "Pure circle",
        "Shape": "7",
        "ratio": "1.3848"
    },
    "13": {
        "quantity": 80,
        "ipfs": "ipfs://QmNccRVzNVjkmT3HsNhKstrq3z5M4AXDYygGeSEk3VhsGd",
        "thumbnail": "ipfs://QmU3kMnzW6Ga7PTWmnSwoqo1QgNP2qnaNzzaW4ngkY1iqw",
        "Metal": "Silver",
        "Background": "Black",
        "Shape": "1",
        "ratio": "3.9565"
    },
    "14": {
        "quantity": 80,
        "ipfs": "ipfs://Qme8zbFFJpZX24tNHc8S9qC4Ty6rFWHHE7f8MZVDciMKL5",
        "thumbnail": "ipfs://Qmch11jQ5QtJActCk7vVMcmrwLaKTaGTH8wv2TWiexjtwr",
        "Metal": "Silver",
        "Background": "Black",
        "Shape": "3",
        "ratio": "3.9565"
    },
    "15": {
        "quantity": 80,
        "ipfs": "ipfs://QmU3zfsHRWUVbW11owW47bxVJSFrnHNCrs4gZRQ5GgXTfD",
        "thumbnail": "ipfs://QmQD3KPFBhHqNYAFm5RDzbuBnTa1v67nveVJwpBVbpoAPs",
        "Metal": "Silver",
        "Background": "Black",
        "Shape": "2",
        "ratio": "3.9565"
    },
    "16": {
        "quantity": 80,
        "ipfs": "ipfs://QmcJPAvv5AFsdXxnwqgX3nhYSm7xFvQbJmKjiLayzUzFGL",
        "thumbnail": "ipfs://Qmdnpudmsg43kctaTrdEZ4XQuosjZY9Y7oKNsvMsyHHHan",
        "Metal": "Silver",
        "Background": "Black",
        "Shape": "4",
        "ratio": "3.9565"
    },
    "17": {
        "quantity": 80,
        "ipfs": "ipfs://QmUdnSfe9hepBEYm1q6NHfnKdhYakpxfNX3PboErpzas59",
        "thumbnail": "ipfs://QmUcC9gJq5BnhbxEw4t9Ez7tc2Sriw9tD1GFzR1KcdrGsw",
        "Metal": "Silver",
        "Background": "Black",
        "Shape": "5",
        "ratio": "3.9565"
    },
    "18": {
        "quantity": 80,
        "ipfs": "ipfs://QmdeKBCA4RwoPueRzPD3umnxQAEZaVyBEPbwUdHBHhfjSL",
        "thumbnail": "ipfs://QmaLFwvx2Qcf3BuWCQMUnd6rxhKptzxxUt7PVA2UJG9Btt",
        "Metal": "Silver",
        "Background": "Black",
        "Shape": "6"
    },
    "19": {
        "quantity": 80,
        "ipfs": "ipfs://QmZbuKWKDXcpYZbzxLbheXVLJJWsCJmPyGkBPUC9KnK2Ry",
        "thumbnail": "ipfs://QmfDnWpb8mdxCubd9svscMzTHHnz3fmk1osvAGxaLRMky1",
        "Metal": "Silver",
        "Background": "Black",
        "Shape": "7",
        "ratio": "3.9565"
    },
    "20": {
        "quantity": 22,
        "ipfs": "ipfs://QmbAdHgMHCodLwikactmCRkBvZrD6jN8SK7DoXuWFrMZPn",
        "thumbnail": "ipfs://Qmc7BHN7Q9EchnMJtPhpZYE8D3tfgHuAk7NJRourRsr9cW",
        "Metal": "Silver",
        "Background": "Pure circle",
        "Shape": "6",
        "ratio": "1.088"
    },
    "21": {
        "quantity": 22,
        "ipfs": "ipfs://QmeGFb5QKKoafhyUj7NRoBrar4nmurGgBURNscFptBNzyC",
        "thumbnail": "ipfs://Qme9puUXi2AkVY5mT4yGFQmHSMLZyDyCzxjmH6k154e2Ri",
        "Metal": "Silver",
        "Background": "Dark Stone",
        "Shape": "2",
        "ratio": "1.088"
    },
    "22": {
        "quantity": 22,
        "ipfs": "ipfs://Qmc3SLLBsfnq2RXaADMD71ZC7B1ZfCFHedWo4oKXzbChL5",
        "thumbnail": "ipfs://QmXSqvyKZjEgg5V3Ra1on1ym7r8ugYimFTLRKU59ZaBf69",
        "Metal": "Silver",
        "Background": "Perfect copper",
        "Shape": "7",
        "ratio": "1.088"
    },
    "23": {
        "quantity": 22,
        "ipfs": "ipfs://Qmen2DcjC5LkBdaFhzJDkLyxqk5ngKGRasdQUC5k9GBA3o",
        "thumbnail": "ipfs://QmZz2MGqEJLtPov7QDWk5Md4NERrRYn3VP2wBdMmiWdUuX",
        "Metal": "Silver",
        "Background": "Metal",
        "Shape": "5",
        "ratio": "1.088"
    },
    "24": {
        "quantity": 22,
        "ipfs": "ipfs://Qmey4W6JwH6z1aZdqCwEhs4aqemgxdUp7Yt4CYuGWVP6MM",
        "thumbnail": "ipfs://Qmap3oLcpvAX7FFfwPTTsqZRYB8NjmkBBUQW1mUNpwdwzN",
        "Metal": "Silver",
        "Background": "Planar",
        "Shape": "4",
        "ratio": "1.088"
    },
    "25": {
        "quantity": 22,
        "ipfs": "ipfs://QmeLdALBrQtVoPWX6EYSNyKRPexUaQmmont6Bh1Yo6fysY",
        "thumbnail": "ipfs://QmX1njjH1aKDyoJ7ANa9DkgGAYf87EoTfmQiYGqoFuqGtw",
        "Metal": "Silver",
        "Background": "Gold marble",
        "Shape": "3",
        "ratio": "1.088"
    },
    "26": {
        "quantity": 60,
        "ipfs": "ipfs://QmUKN9KxnfgmdXBujZrWLyUPRQGzwJo7yporzBCDpXoTuG",
        "thumbnail": "ipfs://QmV1XrGuux8Ejh3HEUAhRQz8tFt94nCGjtLeUEz9ubgL9b",
        "Metal": "Gold",
        "Background": "Black",
        "Shape": "1",
        "ratio": "2.9674"
    },
    "27": {
        "quantity": 60,
        "ipfs": "ipfs://QmRNMoXonpMM6egp621q9mj9FoSjJEXe9K8HdJt4TvjUsd",
        "thumbnail": "ipfs://QmcaKLtifC4HK7DNaTsvPiye4U7YoaqtsnumhGopsD1igK",
        "Metal": "Gold",
        "Background": "Black",
        "Shape": "3",
        "ratio": "2.9674"
    },
    "28": {
        "quantity": 60,
        "ipfs": "ipfs://QmUnpnoZNzSbTvco2kiujcoj8MEaNkaksve3uWT5UKr7JX",
        "thumbnail": "ipfs://QmdPQJ7eWsyqMVhWRbAw2GHasT4CmWkRXjZbHz5Zg7Cgod",
        "Metal": "Gold",
        "Background": "Black",
        "Shape": "4",
        "ratio": "2.9674"
    },
    "29": {
        "quantity": 60,
        "ipfs": "ipfs://QmbyP7GZPgmY9EuJwBujFAuvS2BDVrgzBXMwTZPknMad3z",
        "thumbnail": "ipfs://QmWwfUEfmhYWLBAACTe3eWGHHCCdUio3hvrZX6MzwtvMTL",
        "Metal": "Gold",
        "Background": "Black",
        "Shape": "2",
        "ratio": "2.9674"
    },
    "30": {
        "quantity": 60,
        "ipfs": "ipfs://QmZpHskjL99GMtUg9NHkqos56yKLLeTLsDsJ8qysAkx2qT",
        "thumbnail": "ipfs://QmNaeei3zFACu72W3X2Zmcmi8dh8fCqMg518FmpCqhaEaU",
        "Metal": "Gold",
        "Background": "Black",
        "Shape": "5",
        "ratio": "2.9674"
    },
    "31": {
        "quantity": 60,
        "ipfs": "ipfs://QmXciMzoaKr6FHxXhagAS3cA4ub9iDDhzwBFKMNDPNgAVb",
        "thumbnail": "ipfs://QmUKGRnECg326KafYyU4iCtT7rgJKtafU92vcexibhV2zp",
        "Metal": "Gold",
        "Background": "Black",
        "Shape": "6",
        "ratio": "2.9674"
    },
    "32": {
        "quantity": 60,
        "ipfs": "ipfs://QmZJcYbyGd32zphLJD8BgRo7UBGahJeksUoc9V4MLzRViS",
        "thumbnail": "ipfs://QmRMDiGMnJr6Ay5Urh5WYjCwwUwoe4Wux7qEcHeWCPUDE4",
        "Metal": "Gold",
        "Background": "Black",
        "Shape": "7",
        "ratio": "2.9674"
    },
    "33": {
        "quantity": 15,
        "ipfs": "ipfs://QmRHQw6L66vBrF4J1t4CMSqhB7XbbUCXjvCm6M24mDg15H",
        "thumbnail": "ipfs://QmX32YumqxPEY2aGiiJiqM3xUcTXcQ8QNEsDNiPJirGyr7",
        "Metal": "Gold",
        "Background": "Pure circle",
        "Shape": "8"
    },
    "34": {
        "quantity": 15,
        "ipfs": "ipfs://QmcqF3jmYwHWiTg88JBbE8sZuwbANznLBbU8W8BJ1vtAWv",
        "thumbnail": "ipfs://QmaNc8sMjheaU7gVHLhDR3L2zu1WZu7LVsP6WfgvyDmqev",
        "Metal": "Gold",
        "Background": "Planar",
        "Shape": "3",
        "ratio": "0.7418"
    },
    "35": {
        "quantity": 15,
        "ipfs": "ipfs://QmcaSBmHKujWBrTmReJME2vwntAzDVpdnb4zTRjK4PpV5b",
        "thumbnail": "ipfs://QmYvBaMdgNUNgK5eqZb2oh8tPyz2K8n9vGziXRLnmRjMh9",
        "Metal": "Gold",
        "Background": "Gold marble",
        "Shape": "5",
        "ratio": "0.7418"
    },
    "36": {
        "quantity": 15,
        "ipfs": "ipfs://QmNZLarvduzV4mwdQw2FCMpdMLPRRP8ZdoYkUBT8TAPw2H",
        "thumbnail": "ipfs://QmZaJCeq1Rkv55xo1hKNwtZUqupJx7b4WyMZxfpnkeb3CL",
        "Metal": "Gold",
        "Background": "Gold pepites",
        "Shape": "1",
        "ratio": "0.7418"
    },
    "37": {
        "quantity": 15,
        "ipfs": "ipfs://QmWzEYuAuzVjS8UQEeyAXAn6o7KCCpE1RJry2qZN3tLyyr",
        "thumbnail": "ipfs://QmdQ1fSaLJJQUzkXqoUiQ1jmCgXGfhK92yun17KpGJgxv4",
        "Metal": "Gold",
        "Background": "Minimal",
        "Shape": "4",
        "ratio": "0.7418"
    },
    "38": {
        "quantity": 15,
        "ipfs": "ipfs://QmbjpTmZ6AH2ZvTz4WCuFPPzmj2gBW3xpJYMzpXU8mCsDn",
        "thumbnail": "ipfs://QmXmnTKPzqvSK7VTw7zPKsf6a46ovfggm8VcJG3RverVet",
        "Metal": "Gold",
        "Background": "Dark Stone",
        "Shape": "2",
        "ratio": "0.7418"
    },
    "39": {
        "quantity": 6,
        "ipfs": "ipfs://QmcpgRkkwJALDgHPqCY1MtEygyiPpq6QiiQ5eZPM1GTfBJ",
        "thumbnail": "ipfs://QmYHLBpoxDQqr4j9EoXa4J5gs25vFebuHY2LPXZtYq2spt",
        "Metal": "Ruby",
        "Background": "Black",
        "Shape": "2",
        "ratio": "0.2967"
    },
    "40": {
        "quantity": 6,
        "ipfs": "ipfs://QmVfEPyA6kmefNHRsuxJqw4aRHsSDFTb56SvKcPppHgFGS",
        "thumbnail": "ipfs://QmbaNo7XqN4GRM82kr3qv2Vx8RJLg74qJBitSWEpEeK42y",
        "Metal": "Ruby",
        "Background": "Black",
        "Shape": "4",
        "ratio": "0.2967"
    },
    "41": {
        "quantity": 6,
        "ipfs": "ipfs://QmS3D2NJ45qi8Q8BtMQ9G8PY7BBUEhx4eot22SUKYRcaRW",
        "thumbnail": "ipfs://QmcPcGm44tYCDMEnEs5Keqb8yWZ15DfQgmriZaf1291PzY",
        "Metal": "Ruby",
        "Background": "Black",
        "Shape": "5",
        "ratio": "0.2967"
    },
    "42": {
        "quantity": 3,
        "ipfs": "ipfs://QmadXsqAodN3T5TJvnJt6GmabfLUYPZcLtGYCmcVjjLakU",
        "thumbnail": "ipfs://QmavLu4xaz4sZqkjTAYQLjNT1htjkGrpVXYSf4zNCXcVEw",
        "Metal": "Ruby",
        "Background": "Clean Iron pedestal",
        "Shape": "5",
        "ratio": "0,1484"
    },
    "43": {
        "quantity": 1,
        "ipfs": "ipfs://QmSmakoBAZomrncDXArkqcHq2dk9CsQhfbpR1zFtSRaBb4",
        "thumbnail": "ipfs://QmZNf89ZZkq7XwrQub6fTtrHEQGbqCuew78KkASctjU3E1",
        "Metal": "Diamond",
        "Background": "Gold marble",
        "Shape": "2",
        "ratio": "0.0494"
    }
}